Assignment
…
You can see that there is a correlation between both variables, although the ratio between the amount and the revenue varies a bit. So in the next step we want to take a look at the average price of one order grouped by the different states.

In this code chunk, we create a new table which contains the average price per order for each state. Therefore we have to calculate the total order price first and after that we can group by the customer state and calculate the average.

## `summarise()` has grouped output by 'order_id'. You can override using the `.groups` argument.

## # A tibble: 27 x 2
##    customer_state avg_price
##    <chr>              <dbl>
##  1 AC                  204.
##  2 AL                  242.
##  3 AM                  151.
##  4 AP                  206.
##  5 BA                  167.
##  6 CE                  186.
##  7 DF                  160.
##  8 ES                  131.
##  9 GO                  196.
## 10 MA                  166.
## # ... with 17 more rows
…
